{
  "docs": [
      {
          "links": {
              "patch": {
                  "small": "https://images2.imgbox.com/94/f2/NN6Ph45r_o.png"
              }
          },
          "success": false,
          "failures": [
              {
                  "reason": "merlin engine failure"
              }
          ],
          "payloads": [
              {
                  "type": "Satellite",
                  "id": "5eb0e4b5b6c3bb0006eeb1e1"
              }
          ],
          "name": "FalconSat",
          "date_utc": "2006-03-24T22:30:00.000Z",
          "cores": [
              {
                  "core": {
                      "serial": "Merlin1A",
                      "id": "5e9e289df35918033d3b2623"
                  },
                  "flight": 1,
                  "gridfins": false,
                  "legs": false,
                  "reused": false,
                  "landing_attempt": false,
                  "landing_success": null,
                  "landing_type": null,
                  "landpad": null
              }
          ],
          "id": "5eb87cd9ffd86e000604b32a"
      },
      {
          "links": {
              "patch": {
                  "small": "https://images2.imgbox.com/f9/4a/ZboXReNb_o.png"
              }
          },
          "success": false,
          "failures": [
              {
                  "reason": "harmonic oscillation leading to premature engine shutdown"
              }
          ],
          "payloads": [
              {
                  "type": "Satellite",
                  "id": "5eb0e4b6b6c3bb0006eeb1e2"
              }
          ],
          "name": "DemoSat",
          "date_utc": "2007-03-21T01:10:00.000Z",
          "cores": [
              {
                  "core": {
                      "serial": "Merlin2A",
                      "id": "5e9e289ef35918416a3b2624"
                  },
                  "flight": 1,
                  "gridfins": false,
                  "legs": false,
                  "reused": false,
                  "landing_attempt": false,
                  "landing_success": null,
                  "landing_type": null,
                  "landpad": null
              }
          ],
          "id": "5eb87cdaffd86e000604b32b"
      }
  ],
  "totalDocs": 205,
  "offset": 0,
  "limit": 2,
  "totalPages": 21,
  "page": 1,
  "pagingCounter": 1,
  "hasPrevPage": false,
  "hasNextPage": true,
  "prevPage": null,
  "nextPage": 2
}